module shippy-service-consigment/shippy-service-vessel

go 1.12

require (
	github.com/DidierStockmans/shippy-service-vessel v0.0.0-20190715185504-64aee02b2a1d // indirect
	github.com/micro/go-micro v1.7.0 // indirect
)
